{
  "project_info": {
    "project_number": "818618956636",
    "firebase_url": "https://qrcode-reader-project.firebaseio.com",
    "project_id": "qrcode-reader-project",
    "storage_bucket": "qrcode-reader-project.appspot.com"
  },
  "client": [
    {
      "client_info": {
        "mobilesdk_app_id": "1:818618956636:android:67de22b726e30f75",
        "android_client_info": {
          "package_name": "com.dimas.forqrcode"
        }
      },
      "oauth_client": [
        {
          "client_id": "818618956636-l1o6phkvu1drhin5nr0a7m12lg5h4t3q.apps.googleusercontent.com",
          "client_type": 3
        }
      ],
      "api_key": [
        {
          "current_key": "AIzaSyBd8D6IaYqlBzqiv8lbG_GxB5bDmvixdbk"
        }
      ],
      "services": {
        "analytics_service": {
          "status": 1
        },
        "appinvite_service": {
          "status": 1,
          "other_platform_oauth_client": []
        },
        "ads_service": {
          "status": 2
        }
      }
    }
  ],
  "configuration_version": "1"
}